{
  "comandos": [
    {
      "id": 1,
      "comando": "git init . ",
      "descripcion": "Crea o inicializar un directorio existente como repositorio de git"
    },

    {
      "id": 2,
      "comando": "git add .",
      "descripcion": "Añadir todos los archivos de una sola vez al stage area"
    },
    {
      "id": 3,
      "comando": "git Add [nombre file]",
      "descripcion": "Añadir los archivos indicados al staging area"
    },
    {
      "id": 4,
      "comando": "git Commit -m [mensaje] ",
      "descripcion": " Para identificar y describir los cambios que se han hecho repository(verde) cuando ya se hizo el commit "
    },
    {
      "id": 5,
      "comando": "git status ",
      "descripcion": "Saber el estado de referencia del archivo"
    },
    {
      "id": 6,
      "comando": "git restore [Nombre de Archivo]",
      "descripcion": "Se usa para deshacer los ultimos cambios  hechos"
    },

    {
      "id": 7,
      "comando": "git Push",
      "descripcion": "Sube los cambios de los archivos al repositorio"
    },
    {
      "id": 8,
      "comando": "git log --oneline ",
      "descripcion": "Muestra el historial de los cambios realizados y reversados"
    },
    {
      "id": 9,
      "comando": "git checkout [nombre rama] ",
      "descripcion": "Te permite navegar entre las ramas creadas por git branch."
    },

    {
      "id": 10,
      "comando": "git reset ",
      "descripcion": "Revierte un commit y se le brindan algunas opciones"
    },
    {
      "id": 11,
      "comando": "git clone [URL]",
      "descripcion": "Recupera o clona  el contenido completo del repositorio  "
    },

    {
      "id": 12,
      "comando": "git pull [URL]",
      "descripcion": "Bajar el contenido de los cambios agregados o actualizados con lo que ya se tiene descargado"
    },
    {
      "id": 13,
      "comando": "git branch [nombre rama]",
      "descripcion": "Se crea una nueva rama.Si no se coloca el argumento, se listan las ramas disponibles del repositorio."
    },
    {
      "id": 14,
      "comando": "git checkout -b [nombre rama]",
      "descripcion": "Creamos una rama e inmediatamente nos ubicamos en esta."
    },
    {
      "id": 15,
      "comando": "git checkout -d [nombre rama]",
      "descripcion": "Se borra la rama. Con el argumento -D se puede eliminar de manera forzada."
    },
    {
      "id": 16,
      "comando": "git merge [nombre rama]",
      "descripcion": "Este comando se utiliza para unir dos ramas. Es necesario ubicarse en la rama sobre la que queremos incluir los cambios e indicar en el comando el nombre de la rama que queremos traer."
    },
    {
      "id": 17,
      "comando": "git tag [nombre tag]",
      "descripcion": "Creación de un tag. Si no se colocan argumentos, se listarán los tags disponibles."
    },
    {
      "id": 18,
      "comando": "git tag -a [nombre tag] SHA-1",
      "descripcion": "Con este comando se crea un tag apuntando a un commit en específico."
    },
    {
      "id": 19,
      "comando": "git push origin --tags",
      "descripcion": "Se suben todos los tags a nuestro repositorio."
    },
    {
      "id": 20,
      "comando": "git push origin [nombre tag]",
      "descripcion": "Se sube un tag específico al repositorio."
    }
  ]
}
